<?xml version="1.0" standalone="no"?>
<!DOCTYPE svg PUBLIC "-//W3C//DTD SVG 20010904//EN"
 "http://www.w3.org/TR/2001/REC-SVG-20010904/DTD/svg10.dtd">
<svg version="1.0" xmlns="http://www.w3.org/2000/svg"
 width="900.000000pt" height="900.000000pt" viewBox="0 0 900.000000 900.000000"
 preserveAspectRatio="xMidYMid meet">
<metadata>
Created by potrace 1.10, written by Peter Selinger 2001-2011
</metadata>
<g transform="translate(0.000000,900.000000) scale(0.100000,-0.100000)"
fill="#000000" stroke="none">
<path d="M4340 8986 c0 -15 -21 -26 -52 -26 -31 0 -168 -60 -223 -98 -60 -41
-439 -424 -668 -676 -15 -16 -116 -121 -224 -235 -109 -113 -238 -249 -288
-301 -49 -52 -124 -131 -166 -175 -43 -44 -94 -98 -116 -121 -21 -22 -111
-116 -199 -210 -89 -93 -178 -187 -198 -209 -21 -22 -79 -83 -130 -135 -76
-79 -456 -478 -491 -516 -5 -6 -93 -98 -195 -205 -102 -106 -226 -236 -276
-289 -49 -52 -131 -138 -181 -190 -50 -52 -104 -108 -119 -125 -15 -16 -104
-111 -198 -209 -94 -99 -211 -222 -261 -274 -49 -52 -108 -113 -130 -136 -98
-100 -189 -249 -202 -333 -3 -18 -10 -36 -14 -39 -13 -7 -11 -411 1 -419 5 -3
10 -16 10 -28 0 -27 54 -143 97 -212 84 -132 259 -258 424 -304 92 -26 280
-29 344 -6 22 8 46 15 52 15 20 0 144 60 193 94 52 35 147 129 390 386 96 101
214 225 261 275 48 49 110 115 139 145 29 30 123 129 210 220 86 91 168 177
181 192 14 14 103 108 199 209 326 341 358 374 395 414 20 22 78 83 129 135
50 52 179 187 286 300 107 113 230 242 274 288 44 45 83 87 87 94 4 6 14 8 23
5 15 -6 16 -247 16 -2789 0 -2977 -2 -2841 47 -2990 58 -180 205 -347 377
-433 118 -58 165 -68 316 -69 117 -1 205 11 247 32 10 5 47 24 83 41 169 82
318 259 372 441 9 30 23 73 30 95 10 32 13 571 15 2850 2 1546 5 2817 9 2825
3 10 31 -12 91 -75 47 -50 126 -133 177 -185 50 -52 132 -138 181 -190 100
-107 451 -475 505 -531 19 -19 100 -105 180 -189 80 -85 197 -208 260 -275 64
-66 163 -169 220 -230 104 -110 210 -221 311 -326 30 -31 126 -132 214 -225
87 -93 220 -230 295 -305 118 -118 145 -140 220 -177 129 -64 204 -82 340 -82
74 1 129 6 155 15 22 8 46 15 53 15 7 0 55 20 106 45 140 67 257 187 337 342
59 114 73 184 73 358 0 178 -9 225 -70 350 -65 134 -27 90 -594 685 -113 118
-241 253 -286 300 -205 217 -268 282 -385 404 -69 72 -213 223 -319 336 -107
113 -242 255 -300 315 -59 61 -194 202 -300 315 -107 113 -235 248 -285 300
-51 52 -179 187 -286 300 -106 113 -209 221 -229 241 -58 59 -215 223 -400
418 -96 102 -192 203 -212 224 -21 22 -100 105 -175 184 -76 80 -167 166 -203
193 -77 56 -182 107 -247 119 -26 5 -52 16 -59 25 -16 22 -244 24 -244 2z"/>
</g>
</svg>
