<?xml version="1.0" standalone="no"?>
<!DOCTYPE svg PUBLIC "-//W3C//DTD SVG 20010904//EN"
 "http://www.w3.org/TR/2001/REC-SVG-20010904/DTD/svg10.dtd">
<svg version="1.0" xmlns="http://www.w3.org/2000/svg"
 width="300.000000pt" height="300.000000pt" viewBox="0 0 300.000000 300.000000"
 preserveAspectRatio="xMidYMid meet">
<metadata>
Created by potrace 1.10, written by Peter Selinger 2001-2011
</metadata>
<g transform="translate(0.000000,300.000000) scale(0.050000,-0.050000)" stroke="none">
<path d="M2530 5690 c-1566 -287 -2573 -1844 -2178 -3366 486 -1872 2706
-2659 4268 -1513 917 673 1316 1863 995 2967 -94 322 -364 434 -583 241 -128
-112 -138 -218 -51 -519 114 -396 63 -961 -123 -1347 -79 -164 -468 -658 -602
-763 -1389 -1093 -3458 42 -3294 1808 116 1253 1357 2108 2574 1773 284 -78
379 -65 491 69 141 168 95 406 -99 513 -250 138 -994 211 -1398 137z"/>
<path d="M4540 4999 c-38 -23 -359 -331 -713 -684 l-643 -641 -187 -2 c-719
-7 -944 -960 -302 -1276 464 -228 974 91 976 609 l0 176 653 654 c704 708 725
734 711 899 -20 244 -291 390 -495 265z"/>
</g>
</svg>
