<?xml version="1.0" encoding="utf-8"?>
<!-- Generator: Adobe Illustrator 19.2.1, SVG Export Plug-In . SVG Version: 6.00 Build 0)  -->
<svg version="1.1" id="Shape_111_1_" xmlns="http://www.w3.org/2000/svg" xmlns:xlink="http://www.w3.org/1999/xlink" x="0px"
	 y="0px" viewBox="0 0 7 7" style="enable-background:new 0 0 7 7;" xml:space="preserve">
<style type="text/css">
	<!-- .st0{fill-rule:evenodd;clip-rule:evenodd;fill:#AC9888;} -->
</style>
<g id="Shape_111">
	<g>
		<path class="st0" d="M4.3,3.5L6.8,1C7,0.8,7,0.4,6.8,0.2C6.6-0.1,6.2-0.1,6,0.2L3.5,2.6L1,0.2c-0.2-0.2-0.6-0.2-0.8,0
			C0,0.4,0,0.8,0.2,1l2.5,2.5L0.2,6c-0.2,0.2-0.2,0.6,0,0.8C0.3,6.9,0.4,7,0.6,7C0.7,7,0.9,6.9,1,6.8l2.5-2.5L6,6.8
			C6.2,7,6.6,7,6.8,6.8C7,6.6,7,6.2,6.8,6L4.3,3.5z"/>
	</g>
</g>
</svg>
