<?xml version="1.0" encoding="utf-8"?>
<!-- Generator: Adobe Illustrator 19.2.1, SVG Export Plug-In . SVG Version: 6.00 Build 0)  -->
<svg version="1.1" id="icon_1_" xmlns="http://www.w3.org/2000/svg" xmlns:xlink="http://www.w3.org/1999/xlink" x="0px" y="0px"
	 viewBox="0 0 13 26" style="enable-background:new 0 0 13 26;" xml:space="preserve">
<style type="text/css">
	.st0{fill-rule:evenodd;clip-rule:evenodd;}
</style>
<g id="icon">
	<g>
		<path class="st0" d="M8.3,9.6V6.4c0-1,1-1.2,1.5-1.2c0.5,0,2.9,0,2.9,0V0.9l-3.3,0c-4.5,0-5.5,3.2-5.5,5.3v3.5H0.7V14h3.2
			c0,5.7,0,12,0,12h4.4c0,0,0-6.4,0-12H12l0.7-4.4H8.3z"/>
	</g>
</g>
</svg>
