<svg id="Layer_1" data-name="Layer 1" xmlns="http://www.w3.org/2000/svg" viewBox="0 0 43.38 50">
    <defs>
        <style>.cls-1{}</style>
    </defs>
    <title>Шкафы</title>
    <path class="cls-1" d="M21.69,46.69a1,1,0,0,1-1-1V1a1,1,0,0,1,2,0V45.69A1,1,0,0,1,21.69,46.69Z"/>
    <path class="cls-1" d="M42.38,31.79H1a1,1,0,0,1,0-2H42.38a1,1,0,0,1,0,2Z"/>
    <path class="cls-1" d="M42.38,40.07H1a1,1,0,0,1,0-2H42.38a1,1,0,0,1,0,2Z"/>
    <path class="cls-1" d="M35.76,48.34H7.62a1,1,0,0,1,0-2H35.76a1,1,0,0,1,0,2Z"/>
    <path class="cls-1" d="M25,26.83a1,1,0,0,1-1-1V19.21a1,1,0,0,1,2,0v6.62A1,1,0,0,1,25,26.83Z"/>
    <path class="cls-1" d="M18.38,26.83a1,1,0,0,1-1-1V19.21a1,1,0,0,1,2,0v6.62A1,1,0,0,1,18.38,26.83Z"/>
    <path class="cls-1" d="M31.64,44.21a1,1,0,0,1,0-2h0a1,1,0,1,1,0,2Z"/>
    <path class="cls-1" d="M11.78,44.21a1,1,0,0,1,0-2h0a1,1,0,0,1,0,2Z"/>
    <path class="cls-1" d="M11.78,35.93a1,1,0,0,1,0-2h0a1,1,0,0,1,0,2Z"/>
    <path class="cls-1" d="M31.64,35.93a1,1,0,0,1,0-2h0a1,1,0,1,1,0,2Z"/>
    <path class="cls-1"
          d="M39.07,50a1,1,0,0,1-1-1V47.34a1,1,0,0,1,1-1A2.31,2.31,0,0,0,41.38,44V4.31A2.31,2.31,0,0,0,39.07,2H4.31A2.31,2.31,0,0,0,2,4.31V44a2.31,2.31,0,0,0,2.31,2.31,1,1,0,0,1,1,1V49a1,1,0,0,1-2,0v-.77A4.32,4.32,0,0,1,0,44V4.31A4.32,4.32,0,0,1,4.31,0H39.07a4.32,4.32,0,0,1,4.31,4.31V44a4.32,4.32,0,0,1-3.31,4.19V49A1,1,0,0,1,39.07,50Z"/>
</svg>