<svg id="Layer_1" data-name="Layer 1" xmlns="http://www.w3.org/2000/svg" viewBox="0 0 50 50">
    <defs>
        <style>.cls-1{}</style>
    </defs>
    <title>Письменные столы</title>
    <path class="cls-1" d="M49,50a1,1,0,0,1-1-1V26.83H2V49a1,1,0,0,1-2,0V25.83a1,1,0,0,1,1-1H49a1,1,0,0,1,1,1V49A1,1,0,0,1,49,50Z"/>
    <path class="cls-1" d="M45.69,30.14H4.31a1,1,0,1,1,0-2H45.69a1,1,0,0,1,0,2Z"/>
    <path class="cls-1" d="M45.69,36.76H30.79a1,1,0,0,1,0-2h14.9a1,1,0,1,1,0,2Z"/>
    <path class="cls-1" d="M45.69,43.38H30.79a1,1,0,0,1,0-2h14.9a1,1,0,0,1,0,2Z"/>
    <path class="cls-1" d="M45.69,50H30.79a1,1,0,0,1-1-1V29.14a1,1,0,1,1,2,0V48h13.9a1,1,0,1,1,0,2Z"/>
    <path class="cls-1" d="M39.92,33.45a1,1,0,0,1,0-2h0a1,1,0,0,1,0,2Z"/>
    <path class="cls-1" d="M39.92,40.07a1,1,0,0,1,0-2h0a1,1,0,0,1,0,2Z"/>
    <path class="cls-1" d="M39.92,46.69a1,1,0,0,1,0-2h0a1,1,0,0,1,0,2Z"/>
    <path class="cls-1"
          d="M27.48,20.21H6a2.66,2.66,0,0,1-2.65-2.66V15.9a1,1,0,0,1,1-1H25.83a1,1,0,1,1,0,2H5.31v.66a.66.66,0,0,0,.65.66H27.48a.66.66,0,0,0,.66-.66V2.66A.66.66,0,0,0,27.48,2H6a.66.66,0,0,0-.65.66v9.93a1,1,0,0,1-2,0V2.66A2.66,2.66,0,0,1,6,0H27.48a2.66,2.66,0,0,1,2.66,2.66v14.9A2.66,2.66,0,0,1,27.48,20.21Z"/>
    <path class="cls-1"
          d="M45.69,23.52a1,1,0,0,1-1-1V20.86a.66.66,0,0,0-.66-.66H35.76a.66.66,0,0,0-.66.66v1.65a1,1,0,1,1-2,0V20.86a2.66,2.66,0,0,1,2.66-2.66H44a2.66,2.66,0,0,1,2.66,2.66v1.65A1,1,0,0,1,45.69,23.52Z"/>
    <path class="cls-1" d="M15.07,23.52a1,1,0,0,1-1-1V19.21a1,1,0,0,1,2,0v3.31A1,1,0,0,1,15.07,23.52Z"/>
    <path class="cls-1" d="M18.38,23.52a1,1,0,0,1-1-1V19.21a1,1,0,0,1,2,0v3.31A1,1,0,0,1,18.38,23.52Z"/>
    <path class="cls-1" d="M44,20.21a1,1,0,0,1-1-1v-4H36.76v4a1,1,0,0,1-2,0v-5a1,1,0,0,1,1-1H44a1,1,0,0,1,1,1v5A1,1,0,0,1,44,20.21Z"/>
</svg>