<?xml version="1.0" encoding="utf-8"?>
<!-- Generator: Adobe Illustrator 19.2.1, SVG Export Plug-In . SVG Version: 6.00 Build 0)  -->
<svg version="1.1" id="лого_1_" xmlns="http://www.w3.org/2000/svg" xmlns:xlink="http://www.w3.org/1999/xlink" x="0px"
	 y="0px" viewBox="0 0 86 91" style="enable-background:new 0 0 86 91;" xml:space="preserve">
<style type="text/css">
	.st0{fill-rule:evenodd;clip-rule:evenodd;fill:#433F3E;}
</style>
<g id="лого">
	<g>
		<path class="st0" d="M84.7,0h-2.1H52.3l-9.6,9.6L33.1,0H2.8H0.7H0l0,3.5h3.5v61.3C3.5,76,11.5,84,22.8,84h8.8
			c4.4,0.3,8.9,3.5,11.1,7c2.2-3.5,7.3-6.7,11.7-7h8.8c11.3,0,19.3-8,19.3-19.3l0.1-61.3h-0.1l0.1-1.4l0,1.4H86V0L84.7,0z
			 M70.2,43.7H52.7V31.5l-10,9.1l-9.4-9.1v12.3v21h19.3v-7h-8.8V49h24.6v8.8v7c0,4.6-2.5,8.5-7,8.8h-1.8H24.6c-4.8,0-8.8-4-8.8-8.8
			V42V12.2h12.3l14.6,14l15.2-14h12.3V43.7z"/>
	</g>
</g>
</svg>
