<?xml version="1.0" encoding="utf-8"?>
<!-- Generator: Adobe Illustrator 19.2.1, SVG Export Plug-In . SVG Version: 6.00 Build 0)  -->
<svg version="1.1" id="Режим_изоляции"
	 xmlns="http://www.w3.org/2000/svg" xmlns:xlink="http://www.w3.org/1999/xlink" x="0px" y="0px" viewBox="0 0 10 10"
	 style="enable-background:new 0 0 10 10;" xml:space="preserve">
<style type="text/css">
	<!-- .st0{fill:none;stroke:#303338;stroke-width:2;stroke-linecap:round;stroke-miterlimit:10;} -->
</style>
<g id="XMLID_1509_">
	<line id="XMLID_1602_" class="st0" x1="1" y1="1" x2="9" y2="1"/>
	<line id="XMLID_1601_" class="st0" x1="1" y1="5" x2="9" y2="5"/>
	<line id="XMLID_1510_" class="st0" x1="1" y1="9" x2="9" y2="9"/>
</g>
</svg>
