<?xml version="1.0" encoding="utf-8"?>
<!-- Generator: Adobe Illustrator 19.2.1, SVG Export Plug-In . SVG Version: 6.00 Build 0)  -->
<svg version="1.1" id="Слой_1" xmlns="http://www.w3.org/2000/svg" xmlns:xlink="http://www.w3.org/1999/xlink" x="0px" y="0px"
	 viewBox="0 0 889 4587.5" style="enable-background:new 0 0 889 4587.5;" xml:space="preserve">
<g transform="translate(0.000000,4677.000000) scale(0.100000,-0.100000)">
	<path d="M87,46763c-4-3-7-3962-7-8796v-8790l137-206c75-113,206-311,292-439c86-129,163-244,171-257s38-56,65-97c28-40,52-77,55-83
		c3-5,109-164,235-353c127-189,235-351,240-360c6-9,35-53,65-97s57-84,60-90c3-5,109-164,235-353c127-189,237-354,245-367
		s38-56,65-97c28-40,52-77,55-83c3-5,109-164,235-353c127-189,237-354,245-367s38-56,65-97c28-40,52-77,55-83c3-5,109-164,235-353
		c127-189,237-354,245-367s38-56,65-97c28-40,52-77,55-83c3-5,94-144,204-308c115-172,196-303,193-311s-90-141-194-296
		c-103-155-193-289-198-298c-6-9-35-53-65-97s-59-88-65-97c-5-9-32-50-59-90c-140-209-402-601-411-616c-6-9-35-53-65-97
		s-59-88-65-97c-5-9-53-81-106-160c-170-254-354-529-364-546c-6-9-35-53-65-97s-59-88-65-97c-5-9-53-81-106-160
		c-170-254-354-529-364-546c-6-9-35-53-65-97s-59-88-65-97c-5-9-53-81-106-160c-170-254-354-529-364-546c-6-9-35-53-65-97
		s-59-88-65-97c-5-9-58-88-116-175c-119-178-259-389-274-415c-5-9-34-51-63-93c-28-41-52-78-52-81c0-4-14-23-30-44
		c-17-21-30-41-30-45c0-3-7-13-15-21c-13-14-15-1009-13-8867l3-8852h1755h1755l6,8811c4,5302,10,8817,15,8827c9,16,150,163,493,512
		c385,392,1070,1091,1166,1190c107,110,173,177,865,884c245,249,469,479,499,510s160,164,290,296s344,351,476,486s427,436,655,670
		c387,394,563,576,754,773c42,44,76,84,76,89s-137,147-304,316c-167,168-389,392-493,497c-103,106-530,537-948,959s-843,852-945,955
		c-236,240-1777,1797-2229,2252c-190,192-349,355-354,363c-4,8-11,3940-14,8738c-4,5722-9,8726-16,8735s-370,12-1752,12
		C877,46770,90,46767,87,46763z"/>
</g>
</svg>
